prj1/mycpu_env/soc_verify/soc_dram/run_vivado/project/loongson.sim/sim_1/behav/xsim/dump.vcd
$date
   Tue Aug 27 20:40:53 2024
$end
$version
  2019.2
$end
$timescale
  1ps
$end
$scope module tb_top $end
$scope module soc_lite $end
$var wire 1 ! resetn $end
$var wire 1 " clk $end
$var wire 16 # led [15:0] $end
$var wire 2 $ led_rg0 [1:0] $end
$var wire 2 % led_rg1 [1:0] $end
$var wire 8 & num_csn [7:0] $end
$var wire 7 ' num_a_g [6:0] $end
$var wire 32 ( num_data [31:0] $end
$var wire 8 ) switch [7:0] $end
$var wire 4 * btn_key_col [3:0] $end
$var wire 4 + btn_key_row [3:0] $end
$var wire 2 , btn_step [1:0] $end
$var wire 32 - debug_wb_pc [31:0] $end
$var wire 4 . debug_wb_rf_we [3:0] $end
$var wire 5 / debug_wb_rf_wnum [4:0] $end
$var wire 32 0 debug_wb_rf_wdata [31:0] $end
$var wire 1 1 cpu_clk $end
$var wire 1 2 timer_clk $end
$var reg 1 3 cpu_resetn $end
$var wire 1 4 cpu_inst_we $end
$var wire 32 5 cpu_inst_addr [31:0] $end
$var wire 32 6 cpu_inst_wdata [31:0] $end
$var wire 32 7 cpu_inst_rdata [31:0] $end
$var wire 1 8 cpu_data_we $end
$var wire 32 9 cpu_data_addr [31:0] $end
$var wire 32 : cpu_data_wdata [31:0] $end
$var wire 32 ; cpu_data_rdata [31:0] $end
$var wire 1 < data_sram_en $end
$var wire 1 = data_sram_we $end
$var wire 32 > data_sram_addr [31:0] $end
$var wire 32 ? data_sram_wdata [31:0] $end
$var wire 32 @ data_sram_rdata [31:0] $end
$var wire 1 A conf_en $end
$var wire 1 B conf_we $end
$var wire 32 C conf_addr [31:0] $end
$var wire 32 D conf_wdata [31:0] $end
$var wire 32 E conf_rdata [31:0] $end
$var parameter 0 F SIMULATION $end
$scope module cpu $end
$var wire 1 1 clk $end
$var wire 1 G resetn $end
$var wire 1 4 inst_sram_we $end
$var wire 32 5 inst_sram_addr [31:0] $end
$var wire 32 6 inst_sram_wdata [31:0] $end
$var wire 32 7 inst_sram_rdata [31:0] $end
$var wire 1 8 data_sram_we $end
$var wire 32 9 data_sram_addr [31:0] $end
$var wire 32 : data_sram_wdata [31:0] $end
$var wire 32 ; data_sram_rdata [31:0] $end
$var wire 32 - debug_wb_pc [31:0] $end
$var wire 4 . debug_wb_rf_we [3:0] $end
$var wire 5 / debug_wb_rf_wnum [4:0] $end
$var wire 32 0 debug_wb_rf_wdata [31:0] $end
$var reg 1 H reset $end
$var reg 1 I valid $end
$var wire 32 J seq_pc [31:0] $end
$var wire 32 K nextpc [31:0] $end
$var wire 1 L br_taken $end
$var wire 32 M br_target [31:0] $end
$var wire 32 N inst [31:0] $end
$var reg 32 O pc [31:0] $end
$var wire 12 P alu_op [11:0] $end
$var wire 1 Q load_op $end
$var wire 1 R src1_is_pc $end
$var wire 1 S src2_is_imm $end
$var wire 1 T res_from_mem $end
$var wire 1 U dst_is_r1 $end
$var wire 1 V gr_we $end
$var wire 1 W mem_we $end
$var wire 1 X src_reg_is_rd $end
$var wire 5 Y dest [4:0] $end
$var wire 32 Z rj_value [31:0] $end
$var wire 32 [ rkd_value [31:0] $end
$var wire 32 \ imm [31:0] $end
$var wire 32 ] br_offs [31:0] $end
$var wire 32 ^ jirl_offs [31:0] $end
$var wire 6 _ op_31_26 [5:0] $end
$var wire 4 ` op_25_22 [3:0] $end
$var wire 2 a op_21_20 [1:0] $end
$var wire 5 b op_19_15 [4:0] $end
$var wire 5 c rd [4:0] $end
$var wire 5 d rj [4:0] $end
$var wire 5 e rk [4:0] $end
$var wire 12 f i12 [11:0] $end
$var wire 20 g i20 [19:0] $end
$var wire 16 h i16 [15:0] $end
$var wire 26 i i26 [25:0] $end
$var wire 64 j op_31_26_d [63:0] $end
$var wire 16 k op_25_22_d [15:0] $end
$var wire 4 l op_21_20_d [3:0] $end
$var wire 32 m op_19_15_d [31:0] $end
$var wire 1 n inst_add_w $end
$var wire 1 o inst_sub_w $end
$var wire 1 p inst_slt $end
$var wire 1 q inst_sltu $end
$var wire 1 r inst_nor $end
$var wire 1 s inst_and $end
$var wire 1 t inst_or $end
$var wire 1 u inst_xor $end
$var wire 1 v inst_slli_w $end
$var wire 1 w inst_srli_w $end
$var wire 1 x inst_srai_w $end
$var wire 1 y inst_addi_w $end
$var wire 1 z inst_ld_w $end
$var wire 1 { inst_st_w $end
$var wire 1 | inst_jirl $end
$var wire 1 } inst_b $end
$var wire 1 ~ inst_bl $end
$var wire 1 !! inst_beq $end
$var wire 1 "! inst_bne $end
$var wire 1 #! inst_lu12i_w $end
$var wire 1 $! need_ui5 $end
$var wire 1 %! need_si12 $end
$var wire 1 &! need_si16 $end
$var wire 1 '! need_si20 $end
$var wire 1 (! need_si26 $end
$var wire 1 )! src2_is_4 $end
$var wire 5 *! rf_raddr1 [4:0] $end
$var wire 32 +! rf_rdata1 [31:0] $end
$var wire 5 ,! rf_raddr2 [4:0] $end
$var wire 32 -! rf_rdata2 [31:0] $end
$var wire 1 .! rf_we $end
$var wire 5 /! rf_waddr [4:0] $end
$var wire 32 0! rf_wdata [31:0] $end
$var wire 32 1! alu_src1 [31:0] $end
$var wire 32 2! alu_src2 [31:0] $end
$var wire 32 3! alu_result [31:0] $end
$var wire 32 4! mem_result [31:0] $end
$var wire 1 5! rj_eq_rd $end
$var wire 1 6! final_result $end
$var wire 1 7! debug_wb_rf_wen $end
$scope module u_dec0 $end
$var wire 6 _ in [5:0] $end
$var wire 64 j out [63:0] $end
$upscope $end
$scope module u_dec1 $end
$var wire 4 ` in [3:0] $end
$var wire 16 k out [15:0] $end
$upscope $end
$scope module u_dec2 $end
$var wire 2 a in [1:0] $end
$var wire 4 l out [3:0] $end
$upscope $end
$scope module u_dec3 $end
$var wire 5 b in [4:0] $end
$var wire 32 m out [31:0] $end
$upscope $end
$scope module u_regfile $end
$var wire 1 1 clk $end
$var wire 5 *! raddr1 [4:0] $end
$var wire 32 +! rdata1 [31:0] $end
$var wire 5 ,! raddr2 [4:0] $end
$var wire 32 -! rdata2 [31:0] $end
$var wire 1 .! we $end
$var wire 5 /! waddr [4:0] $end
$var wire 32 0! wdata [31:0] $end
$upscope $end
$scope module u_alu $end
$var wire 12 P alu_op [11:0] $end
$var wire 32 2! alu_src1 [31:0] $end
$var wire 32 2! alu_src2 [31:0] $end
$var wire 32 3! alu_result [31:0] $end
$var wire 1 8! op_add $end
$var wire 1 9! op_sub $end
$var wire 1 :! op_slt $end
$var wire 1 ;! op_sltu $end
$var wire 1 <! op_and $end
$var wire 1 =! op_nor $end
$var wire 1 >! op_or $end
$var wire 1 ?! op_xor $end
$var wire 1 @! op_sll $end
$var wire 1 A! op_srl $end
$var wire 1 B! op_sra $end
$var wire 1 C! op_lui $end
$var wire 32 D! add_sub_result [31:0] $end
$var wire 32 E! slt_result [31:0] $end
$var wire 32 F! sltu_result [31:0] $end
$var wire 32 G! and_result [31:0] $end
$var wire 32 H! nor_result [31:0] $end
$var wire 32 I! or_result [31:0] $end
$var wire 32 J! xor_result [31:0] $end
$var wire 32 K! lui_result [31:0] $end
$var wire 32 L! sll_result [31:0] $end
$var wire 64 M! sr64_result [63:0] $end
$var wire 32 N! sr_result [31:0] $end
$var wire 32 O! adder_a [31:0] $end
$var wire 32 P! adder_b [31:0] $end
$var wire 1 Q! adder_cin $end
$var wire 32 R! adder_result [31:0] $end
$var wire 1 S! adder_cout $end
$upscope $end
$upscope $end
$scope module inst_ram $end
$var wire 15 T! a [14:0] $end
$var wire 32 6 d [31:0] $end
$var wire 1 1 clk $end
$var wire 1 4 we $end
$var wire 32 7 spo [31:0] $end
$scope module inst $end
$var wire 15 T! a [14:0] $end
$var wire 32 6 d [31:0] $end
$var wire 15 U! dpra [14:0] $end
$var wire 1 1 clk $end
$var wire 1 4 we $end
$var wire 1 V! i_ce $end
$var wire 1 W! qspo_ce $end
$var wire 1 X! qdpo_ce $end
$var wire 1 Y! qdpo_clk $end
$var wire 1 Z! qspo_rst $end
$var wire 1 [! qdpo_rst $end
$var wire 1 \! qspo_srst $end
$var wire 1 ]! qdpo_srst $end
$var wire 32 7 spo [31:0] $end
$var wire 32 ^! qspo [31:0] $end
$var wire 32 _! dpo [31:0] $end
$var wire 32 `! qdpo [31:0] $end
$var wire 15 a! a_int [14:0] $end
$var wire 32 b! d_int [31:0] $end
$var wire 1 c! we_int $end
$var wire 1 d! qspo_ce_int $end
$var wire 1 e! qdpo_clk_int $end
$var wire 15 f! dpra_int [14:0] $end
$var wire 1 g! qdpo_ce_int $end
$var reg 1 h! we_reg $end
$var reg 15 i! a_reg [14:0] $end
$var reg 32 j! d_reg [31:0] $end
$var reg 1 k! qspo_ce_reg $end
$var reg 15 l! dpra_reg [14:0] $end
$var reg 1 m! qdpo_ce_reg $end
$var wire 32 n! spo_int [31:0] $end
$var wire 32 o! dpo_int [31:0] $end
$var reg 32 p! qspo_int [31:0] $end
$var reg 32 q! qspo_pipe [31:0] $end
$var reg 32 r! qdpo_int [31:0] $end
$var reg 32 s! qdpo_pipe [31:0] $end
$var reg 32 t! default_data [31:0] $end
$var wire 32 u! data_sp [31:0] $end
$var wire 32 v! data_dp [31:0] $end
$var wire 32 w! data_sp_over [31:0] $end
$var wire 32 x! data_dp_over [31:0] $end
$var wire 15 y! a_over [14:0] $end
$var wire 15 z! dpra_over [14:0] $end
$var wire 1 {! a_is_over $end
$var wire 1 |! dpra_is_over $end
$var reg 15 }! max_address [14:0] $end
$var integer 32 ~! i $end
$var integer 32 !" j $end
$var parameter 48 "" C_FAMILY [47:0] $end
$var parameter 32 #" C_ADDR_WIDTH [31:0] $end
$var parameter 8 $" C_DEFAULT_DATA [7:0] $end
$var parameter 16 %" C_ELABORATION_DIR [15:0] $end
$var parameter 32 &" C_DEPTH [31:0] $end
$var parameter 32 '" C_HAS_CLK [31:0] $end
$var parameter 32 (" C_HAS_D [31:0] $end
$var parameter 32 )" C_HAS_DPO [31:0] $end
$var parameter 32 *" C_HAS_DPRA [31:0] $end
$var parameter 32 +" C_HAS_I_CE [31:0] $end
$var parameter 32 ," C_HAS_QDPO [31:0] $end
$var parameter 32 -" C_HAS_QDPO_CE [31:0] $end
$var parameter 32 ." C_HAS_QDPO_CLK [31:0] $end
$var parameter 32 /" C_HAS_QDPO_RST [31:0] $end
$var parameter 32 0" C_HAS_QDPO_SRST [31:0] $end
$var parameter 32 1" C_HAS_QSPO [31:0] $end
$var parameter 32 2" C_HAS_QSPO_CE [31:0] $end
$var parameter 32 3" C_HAS_QSPO_RST [31:0] $end
$var parameter 32 4" C_HAS_QSPO_SRST [31:0] $end
$var parameter 32 5" C_HAS_SPO [31:0] $end
$var parameter 32 6" C_HAS_WE [31:0] $end
$var parameter 96 7" C_MEM_INIT_FILE [95:0] $end
$var parameter 32 8" C_MEM_TYPE [31:0] $end
$var parameter 32 9" C_PIPELINE_STAGES [31:0] $end
$var parameter 32 :" C_QCE_JOINED [31:0] $end
$var parameter 32 ;" C_QUALIFY_WE [31:0] $end
$var parameter 32 <" C_READ_MIF [31:0] $end
$var parameter 32 =" C_REG_A_D_INPUTS [31:0] $end
$var parameter 32 >" C_REG_DPRA_INPUT [31:0] $end
$var parameter 32 ?" C_SYNC_ENABLE [31:0] $end
$var parameter 32 @" C_WIDTH [31:0] $end
$var parameter 32 A" C_PARSER_TYPE [31:0] $end
$scope function binstr_conv $end
$var reg 32 B" binstr_conv [31:0] $end
$var reg 256 C" def_data [255:0] $end
$var integer 32 D" index $end
$var integer 32 E" i $end
$upscope $end
$upscope $end
$upscope $end
$scope module bridge_1x2 $end
$var wire 1 1 clk $end
$var wire 1 F" resetn $end
$var wire 1 8 cpu_data_we $end
$var wire 32 9 cpu_data_addr [31:0] $end
$var wire 32 : cpu_data_wdata [31:0] $end
$var wire 32 ; cpu_data_rdata [31:0] $end
$var wire 1 < data_sram_en $end
$var wire 1 = data_sram_we $end
$var wire 32 > data_sram_addr [31:0] $end
$var wire 32 ? data_sram_wdata [31:0] $end
$var wire 32 @ data_sram_rdata [31:0] $end
$var wire 1 A conf_en $end
$var wire 1 B conf_we $end
$var wire 32 C conf_addr [31:0] $end
$var wire 32 D conf_wdata [31:0] $end
$var wire 32 E conf_rdata [31:0] $end
$var wire 1 G" sel_sram $end
$var wire 1 H" sel_conf $end
$upscope $end
$scope module data_ram $end
$var wire 10 I" a [9:0] $end
$var wire 32 ? d [31:0] $end
$var wire 1 1 clk $end
$var wire 1 J" we $end
$var wire 32 @ spo [31:0] $end
$scope module inst $end
$var wire 10 I" a [9:0] $end
$var wire 32 ? d [31:0] $end
$var wire 10 K" dpra [9:0] $end
$var wire 1 1 clk $end
$var wire 1 J" we $end
$var wire 1 L" i_ce $end
$var wire 1 M" qspo_ce $end
$var wire 1 N" qdpo_ce $end
$var wire 1 O" qdpo_clk $end
$var wire 1 P" qspo_rst $end
$var wire 1 Q" qdpo_rst $end
$var wire 1 R" qspo_srst $end
$var wire 1 S" qdpo_srst $end
$var wire 32 @ spo [31:0] $end
$var wire 32 T" qspo [31:0] $end
$var wire 32 U" dpo [31:0] $end
$var wire 32 V" qdpo [31:0] $end
$var wire 10 W" a_int [9:0] $end
$var wire 32 X" d_int [31:0] $end
$var wire 1 Y" we_int $end
$var wire 1 Z" qspo_ce_int $end
$var wire 1 [" qdpo_clk_int $end
$var wire 10 \" dpra_int [9:0] $end
$var wire 1 ]" qdpo_ce_int $end
$var reg 1 ^" we_reg $end
$var reg 10 _" a_reg [9:0] $end
$var reg 32 `" d_reg [31:0] $end
$var reg 1 a" qspo_ce_reg $end
$var reg 10 b" dpra_reg [9:0] $end
$var reg 1 c" qdpo_ce_reg $end
$var wire 32 d" spo_int [31:0] $end
$var wire 32 e" dpo_int [31:0] $end
$var reg 32 f" qspo_int [31:0] $end
$var reg 32 g" qspo_pipe [31:0] $end
$var reg 32 h" qdpo_int [31:0] $end
$var reg 32 i" qdpo_pipe [31:0] $end
$var reg 32 j" default_data [31:0] $end
$var wire 32 k" data_sp [31:0] $end
$var wire 32 l" data_dp [31:0] $end
$var wire 32 m" data_sp_over [31:0] $end
$var wire 32 n" data_dp_over [31:0] $end
$var wire 10 o" a_over [9:0] $end
$var wire 10 p" dpra_over [9:0] $end
$var wire 1 q" a_is_over $end
$var wire 1 r" dpra_is_over $end
$var reg 10 s" max_address [9:0] $end
$var integer 32 t" i $end
$var integer 32 u" j $end
$var parameter 48 v" C_FAMILY [47:0] $end
$var parameter 32 w" C_ADDR_WIDTH [31:0] $end
$var parameter 8 x" C_DEFAULT_DATA [7:0] $end
$var parameter 16 y" C_ELABORATION_DIR [15:0] $end
$var parameter 32 z" C_DEPTH [31:0] $end
$var parameter 32 {" C_HAS_CLK [31:0] $end
$var parameter 32 |" C_HAS_D [31:0] $end
$var parameter 32 }" C_HAS_DPO [31:0] $end
$var parameter 32 ~" C_HAS_DPRA [31:0] $end
$var parameter 32 !# C_HAS_I_CE [31:0] $end
$var parameter 32 "# C_HAS_QDPO [31:0] $end
$var parameter 32 ## C_HAS_QDPO_CE [31:0] $end
$var parameter 32 $# C_HAS_QDPO_CLK [31:0] $end
$var parameter 32 %# C_HAS_QDPO_RST [31:0] $end
$var parameter 32 &# C_HAS_QDPO_SRST [31:0] $end
$var parameter 32 '# C_HAS_QSPO [31:0] $end
$var parameter 32 (# C_HAS_QSPO_CE [31:0] $end
$var parameter 32 )# C_HAS_QSPO_RST [31:0] $end
$var parameter 32 *# C_HAS_QSPO_SRST [31:0] $end
$var parameter 32 +# C_HAS_SPO [31:0] $end
$var parameter 32 ,# C_HAS_WE [31:0] $end
$var parameter 144 -# C_MEM_INIT_FILE [143:0] $end
$var parameter 32 .# C_MEM_TYPE [31:0] $end
$var parameter 32 /# C_PIPELINE_STAGES [31:0] $end
$var parameter 32 0# C_QCE_JOINED [31:0] $end
$var parameter 32 1# C_QUALIFY_WE [31:0] $end
$var parameter 32 2# C_READ_MIF [31:0] $end
$var parameter 32 3# C_REG_A_D_INPUTS [31:0] $end
$var parameter 32 4# C_REG_DPRA_INPUT [31:0] $end
$var parameter 32 5# C_SYNC_ENABLE [31:0] $end
$var parameter 32 6# C_WIDTH [31:0] $end
$var parameter 32 7# C_PARSER_TYPE [31:0] $end
$scope function binstr_conv $end
$var reg 32 8# binstr_conv [31:0] $end
$var reg 256 9# def_data [255:0] $end
$var integer 32 :# index $end
$var integer 32 ;# i $end
$upscope $end
$upscope $end
$upscope $end
$scope module u_confreg $end
$var wire 1 1 clk $end
$var wire 1 2 timer_clk $end
$var wire 1 <# resetn $end
$var wire 1 A conf_en $end
$var wire 1 B conf_we $end
$var wire 32 C conf_addr [31:0] $end
$var wire 32 D conf_wdata [31:0] $end
$var wire 32 E conf_rdata [31:0] $end
$var wire 16 # led [15:0] $end
$var wire 2 $ led_rg0 [1:0] $end
$var wire 2 % led_rg1 [1:0] $end
$var reg 8 =# num_csn [7:0] $end
$var reg 7 ># num_a_g [6:0] $end
$var reg 32 ?# num_data [31:0] $end
$var wire 8 ) switch [7:0] $end
$var wire 4 * btn_key_col [3:0] $end
$var wire 4 + btn_key_row [3:0] $end
$var wire 2 , btn_step [1:0] $end
$var reg 32 @# cr0 [31:0] $end
$var reg 32 A# cr1 [31:0] $end
$var reg 32 B# cr2 [31:0] $end
$var reg 32 C# cr3 [31:0] $end
$var reg 32 D# cr4 [31:0] $end
$var reg 32 E# cr5 [31:0] $end
$var reg 32 F# cr6 [31:0] $end
$var reg 32 G# cr7 [31:0] $end
$var reg 32 H# led_data [31:0] $end
$var reg 32 I# led_rg0_data [31:0] $end
$var reg 32 J# led_rg1_data [31:0] $end
$var wire 32 K# switch_data [31:0] $end
$var wire 32 L# sw_inter_data [31:0] $end
$var wire 32 M# btn_key_data [31:0] $end
$var wire 32 N# btn_step_data [31:0] $end
$var reg 8 O# confreg_uart_data [7:0] $end
$var reg 1 P# confreg_uart_valid $end
$var reg 32 Q# timer_r2 [31:0] $end
$var reg 32 R# simu_flag [31:0] $end
$var reg 32 S# io_simu [31:0] $end
$var reg 8 T# virtual_uart_data [7:0] $end
$var reg 1 U# open_trace $end
$var reg 1 V# num_monitor $end
$var wire 1 W# conf_write $end
$var wire 1 X# write_cr0 $end
$var wire 1 Y# write_cr1 $end
$var wire 1 Z# write_cr2 $end
$var wire 1 [# write_cr3 $end
$var wire 1 \# write_cr4 $end
$var wire 1 ]# write_cr5 $end
$var wire 1 ^# write_cr6 $end
$var wire 1 _# write_cr7 $end
$var reg 1 `# write_timer_begin $end
$var reg 1 a# write_timer_begin_r1 $end
$var reg 1 b# write_timer_begin_r2 $end
$var reg 1 c# write_timer_begin_r3 $end
$var reg 1 d# write_timer_end_r1 $end
$var reg 1 e# write_timer_end_r2 $end
$var reg 32 f# conf_wdata_r [31:0] $end
$var reg 32 g# conf_wdata_r1 [31:0] $end
$var reg 32 h# conf_wdata_r2 [31:0] $end
$var reg 32 i# timer_r1 [31:0] $end
$var reg 32 j# timer [31:0] $end
$var wire 1 k# write_timer $end
$var wire 1 l# write_io_simu $end
$var wire 1 m# write_open_trace $end
$var wire 1 n# write_num_monitor $end
$var wire 8 o# write_uart_data [7:0] $end
$var wire 1 p# write_uart_valid $end
$var wire 1 q# write_led $end
$var reg 16 r# btn_key_r [15:0] $end
$var reg 3 s# state [2:0] $end
$var wire 3 t# next_state [2:0] $end
$var reg 1 u# key_flag $end
$var reg 20 v# key_count [19:0] $end
$var reg 4 w# state_count [3:0] $end
$var wire 1 x# key_start $end
$var wire 1 y# key_end $end
$var wire 1 z# key_sample $end
$var wire 16 {# btn_key_tmp [15:0] $end
$var reg 1 |# btn_step0_r $end
$var reg 1 }# btn_step1_r $end
$var reg 1 ~# step0_flag $end
$var reg 20 !$ step0_count [19:0] $end
$var wire 1 "$ step0_start $end
$var wire 1 #$ step0_end $end
$var wire 1 $$ step0_sample $end
$var reg 1 %$ step1_flag $end
$var reg 20 &$ step1_count [19:0] $end
$var wire 1 '$ step1_start $end
$var wire 1 ($ step1_end $end
$var wire 1 )$ step1_sample $end
$var wire 1 *$ write_led_rg0 $end
$var wire 1 +$ write_led_rg1 $end
$var wire 1 ,$ write_num $end
$var reg 20 -$ count [19:0] $end
$var reg 4 .$ scan_data [3:0] $end
$var parameter 0 /$ SIMULATION $end
$upscope $end
$upscope $end
$upscope $end
$enddefinitions $end
#0
$dumpvars
0!
x!!
bx !"
b0 !#
bx !$
0"
x"!
b11000010111001001110100011010010111100000110111 ""
b0 "#
0"$
bx #
x#!
b1111 #"
b0 ##
x#$
bx $
x$!
b110000 $"
b0 $#
x$$
bx %
x%!
b10111000101111 %"
b0 %#
x%$
bx &
x&!
b1000000000000000 &"
b0 &#
bx &$
bx '
x'!
b1 '"
b0 '#
0'$
bx (
x(!
b1 ("
b0 (#
x($
b11111111 )
x)!
b0 )"
b0 )#
x)$
bx *
bx *!
b0 *"
b0 *#
x*$
b0 +
bx +!
b0 +"
b1 +#
x+$
b11 ,
bx ,!
b0 ,"
b1 ,#
x,$
bx -
bx -!
b0 -"
b11011100110111101011111011000110110111101100101010111110110011001101001011011000110010101011111011011000110111101100001011001000110010101100100 -#
bx -$
bz .
x.!
b0 ."
b1 .#
bx .$
bx /
bx /!
b0 /"
b0 /#
1/$
b0x 0
b0x 0!
b0 0"
b0 0#
01
bx 1!
b0 1"
b0 1#
02
bx 2!
b0 2"
b0 2#
x3
bx 3!
b0 3"
b0 3#
04
bx 4!
b0 4"
b0 4#
bx 5
x5!
b1 5"
b1 5#
b0 6
x6!
b1 6"
b100000 6#
bx 7
x7!
b11010010110111001110011011101000101111101110010011000010110110100101110011011010110100101100110 7"
b1 7#
x8
x8!
b1 8"
b0 8#
bx 9
x9!
b0 9"
b0 9#
bx :
x:!
b0 :"
b10 :#
bx ;
x;!
b0 ;"
b11111111111111111111111111111110 ;#
x<
x<!
b1 <"
x<#
x=
x=!
b0 ="
bx =#
bx >
x>!
b0 >"
bx >#
bx ?
x?!
b1 ?"
bx ?#
bx @
x@!
b100000 @"
bx @#
xA
xA!
b1 A"
bx A#
xB
xB!
b0 B"
bx B#
bx C
xC!
b0 C"
bx C#
bx D
bx D!
b10 D"
bx D#
bx E
b0x E!
b11111111111111111111111111111110 E"
bx E#
1F
b0x F!
xF"
bx F#
xG
bx G!
xG"
bx G#
xH
bx H!
xH"
bx H#
xI
bx I!
bx I"
bx I#
bx J
bx J!
xJ"
bx J#
bx K
bx K!
b0 K"
b11111111 K#
xL
bx L!
1L"
b1010101010101010 L#
bx M
bx M!
1M"
b0xxxxxxxxxxxxxxxx M#
bx N
b0xxxxxxxxxxxxxxxxxxxxxxxxxxxxxxx N!
1N"
b0xx N#
bx O
bx O!
0O"
bx O#
bx P
bx P!
0P"
xP#
zQ
xQ!
0Q"
bx Q#
xR
bx R!
0R"
bx R#
xS
xS!
0S"
bx S#
xT
bx T!
bx T"
bx T#
xU
b0 U!
bx U"
xU#
xV
1V!
bx V"
xV#
xW
1W!
bx W"
xW#
xX
1X!
bx X"
xX#
bx Y
0Y!
xY"
xY#
bx Z
0Z!
0Z"
xZ#
bx [
0[!
0["
x[#
bx \
0\!
b0 \"
x\#
bx00 ]
0]!
0]"
x]#
bx00 ^
bx ^!
0^"
x^#
bx _
bx _!
b0 _"
x_#
bx `
bx `!
b0 `"
x`#
bx a
bx a!
0a"
xa#
bx b
b0 b!
b0 b"
xb#
bx c
0c!
0c"
xc#
bx d
0d!
bx d"
xd#
bx e
0e!
bx e"
xe#
bx f
b0 f!
b0 f"
bx f#
bx g
0g!
b0 g"
bx g#
bx h
0h!
b0 h"
bx h#
bx i
b0 i!
b0 i"
bx i#
bx j
b0 j!
b0 j"
bx j#
bx k
0k!
bx k"
xk#
bx l
b0 l!
b0 l"
xl#
bx m
0m!
bx m"
xm#
xn
bx n!
bx n"
xn#
xo
bx o!
bx o"
bx o#
xp
b0 p!
b0 p"
xp#
xq
b0 q!
xq"
xq#
xr
b0 r!
0r"
bx r#
xs
b0 s!
b1111111111 s"
bx s#
xt
b0 t!
b10000000000 t"
bx t#
xu
bx u!
bx u"
xu#
xv
b10101111111111110000001100 v!
b11000010111001001110100011010010111100000110111 v"
bx v#
xw
bx w!
b1010 w"
bx w#
xx
bx x!
b110000 x"
xx#
xy
bx y!
b10111000101111 y"
0y#
xz
b0 z!
b10000000000 z"
xz#
x{
x{!
b1 {"
b0 {#
x|
0|!
b1 |"
x|#
x}
b111111111111111 }!
b0 }"
x}#
x~
b1000000000000000 ~!
b0 ~"
x~#
$end
#5000
1"
x.!
11
12
03
x8
0<#
0F"
0G
1I
xL
#5100
x^"
bx _"
bx `"
1a"
bx f"
bx g"
bx i!
1k!
bx p!
bx q!
#10000
0"
01
02
#15000
b0 !$
1"
b0 #
0#$
b0 $
0$$
b0 %
0%$
b11111111 &
b0 &$
b0 '
b0 (
0($
0)$
b0 *
b0 -$
b0 .$
11
12
b11111111 =#
b0 >#
b0 ?#
b0 @#
b0 A#
b0 B#
b0 C#
b0 D#
bx E
b0 E#
b0 F#
b0 G#
1H
b0 H#
b0 I#
b0 J#
b0 M#
b0 N#
b0 O#
0P#
b11111111111111111111111111111111 R#
b0 S#
b0 T#
1U#
1V#
0`#
b0 j#
b0 r#
b0 s#
b0 t#
0u#
b0 v#
b0 w#
1x#
0z#
1|#
1}#
0~#
#20000
0"
01
02
#25000
0!!
1"
0"!
0#!
0$!
0%!
0&!
0'!
0(!
0)!
b0 *!
0*$
b0 +!
0+$
b0 ,!
0,$
b11011111111111111111111111100 -
b0 -!
0.!
b0 /
b0 /!
b0 0
b0 0!
11
b0 1!
12
b0 2!
b0 3!
b0 4!
b11011111111111111111111111100 5
15!
06!
b0 7
07!
08
08!
b0 9
09!
b0 :
0:!
b0 ;
0;!
1<
0<!
0=
0=!
b0 >
0>!
b0 ?
0?!
b0 @
0@!
0A
0A!
0B
0B!
b0 C
0C!
b0 D
b0 D!
b0 E
b0 E!
b1 F!
b0 G!
1G"
b11111111111111111111111111111111 H!
0H"
0I
b0 I!
b0 I"
b11100000000000000000000000000 J
b0 J!
0J"
b11100000000000000000000000000 K
b0 K!
0L
b0 L!
b0 M
b0 M!
b0 N
b0 N!
b11011111111111111111111111100 O
b0 O!
b0 P
b0 P!
0Q!
0R
b0 R!
0S
0S!
0T
b111111111111111 T!
0U
1V
0W
b0 W"
0W#
0X
b0 X"
0X#
b0 Y
0Y"
0Y#
b0 Z
0Z#
b0 [
0[#
b0 \
0\#
b0 ]
0]#
b0 ^
0^#
b0 _
0_#
b0 `
b0 a
b111111111111111 a!
0a#
b0 b
b0 c
b0 d
b0 d"
b0 e
b0 f
b0 g
b0 h
b0 i
b0 i#
b1 j
b1 k
b0 k"
0k#
b1 l
0l#
b1 m
0m#
0n
b0 n!
0n#
0o
b0 o"
b0 o#
0p
0p#
0q
0q"
0q#
0r
0s
0t
0u
b0 u!
0v
0w
0x
0y
b111111111111111 y!
0z
0{
0{!
0|
0}
0~
#30000
0"
01
02
#35000
1"
11
12
b0 E
b0 Q#
0b#
#35100
0^"
b0 _"
b0 `"
b0 f"
b0 g"
b111111111111111 i!
b0 p!
b0 q!
#40000
0"
01
02
#45000
1"
11
12
0c#
0d#
#50000
0"
01
02
#55000
1"
11
12
0e#
